<?xml version="1.0" encoding="UTF-8" standalone="no"?>
<svg
   xmlns:dc="http://purl.org/dc/elements/1.1/"
   xmlns:cc="http://creativecommons.org/ns#"
   xmlns:rdf="http://www.w3.org/1999/02/22-rdf-syntax-ns#"
   xmlns:svg="http://www.w3.org/2000/svg"
   xmlns="http://www.w3.org/2000/svg"
   xmlns:sodipodi="http://sodipodi.sourceforge.net/DTD/sodipodi-0.dtd"
   xmlns:inkscape="http://www.inkscape.org/namespaces/inkscape"
   viewBox="0 0 10.5 9.45"
   width="150mm"
   height="135mm"
   version="1.1"
   id="svg54"
   sodipodi:docname="aruco-36-plate.svg"
   inkscape:export-filename="/home/rkartmann/repos/imagine/ImagineRT/data/ImagineRT/robotmodel/KITGripper/external-camera-calibration/aruco-36-plate.svg.png"
   inkscape:export-xdpi="149.95407"
   inkscape:export-ydpi="149.95407"
   inkscape:version="0.92.3 (2405546, 2018-03-11)"
   style="shape-rendering:crispEdges">
  <metadata
     id="metadata60">
    <rdf:RDF>
      <cc:Work
         rdf:about="">
        <dc:format>image/svg+xml</dc:format>
        <dc:type
           rdf:resource="http://purl.org/dc/dcmitype/StillImage" />
        <dc:title></dc:title>
      </cc:Work>
    </rdf:RDF>
  </metadata>
  <defs
     id="defs58" />
  <sodipodi:namedview
     pagecolor="#ffffff"
     bordercolor="#666666"
     borderopacity="1"
     objecttolerance="10"
     gridtolerance="10"
     guidetolerance="10"
     inkscape:pageopacity="0"
     inkscape:pageshadow="2"
     inkscape:window-width="1848"
     inkscape:window-height="1136"
     id="namedview56"
     showgrid="false"
     inkscape:zoom="1.2488333"
     inkscape:cx="169.86278"
     inkscape:cy="258.46602"
     inkscape:window-x="1992"
     inkscape:window-y="32"
     inkscape:window-maximized="1"
     inkscape:current-layer="svg54"
     inkscape:snap-page="true" />
  <rect
     style="fill:#ffffff;fill-opacity:1;stroke:none;stroke-width:0.028;stroke-linecap:butt;stroke-linejoin:round;stroke-miterlimit:4;stroke-dasharray:none;stroke-opacity:1;paint-order:normal"
     id="rect1008"
     width="10.5"
     height="9.4499998"
     x="8.2544398e-09"
     y="-2.6449234e-07" />
  <g
     id="g959"
     transform="rotate(-90,3.29,5.04)">
    <rect
       style="fill:#000000"
       id="rect2"
       height="7"
       width="7"
       y="3.5"
       x="0" />
    <rect
       style="fill:#ffffff"
       id="rect4"
       y="4.5"
       x="1"
       height="1"
       width="1" />
    <rect
       style="fill:#000000"
       id="rect6"
       y="4.5"
       x="2"
       height="1"
       width="1" />
    <rect
       style="fill:#000000"
       id="rect8"
       y="4.5"
       x="3"
       height="1"
       width="1" />
    <rect
       style="fill:#000000"
       id="rect10"
       y="4.5"
       x="4"
       height="1"
       width="1" />
    <rect
       style="fill:#000000"
       id="rect12"
       y="4.5"
       x="5"
       height="1"
       width="1" />
    <rect
       style="fill:#ffffff"
       id="rect14"
       y="5.5"
       x="1"
       height="1"
       width="1" />
    <rect
       style="fill:#000000"
       id="rect16"
       y="5.5"
       x="2"
       height="1"
       width="1" />
    <rect
       style="fill:#000000"
       id="rect18"
       y="5.5"
       x="3"
       height="1"
       width="1" />
    <rect
       style="fill:#000000"
       id="rect20"
       y="5.5"
       x="4"
       height="1"
       width="1" />
    <rect
       style="fill:#000000"
       id="rect22"
       y="5.5"
       x="5"
       height="1"
       width="1" />
    <rect
       style="fill:#000000"
       id="rect24"
       y="6.5"
       x="1"
       height="1"
       width="1" />
    <rect
       style="fill:#ffffff"
       id="rect26"
       y="6.5"
       x="2"
       height="1"
       width="1" />
    <rect
       style="fill:#000000"
       id="rect28"
       y="6.5"
       x="3"
       height="1"
       width="1" />
    <rect
       style="fill:#000000"
       id="rect30"
       y="6.5"
       x="4"
       height="1"
       width="1" />
    <rect
       style="fill:#ffffff"
       id="rect32"
       y="6.5"
       x="5"
       height="1"
       width="1" />
    <rect
       style="fill:#ffffff"
       id="rect34"
       y="7.5"
       x="1"
       height="1"
       width="1" />
    <rect
       style="fill:#000000"
       id="rect36"
       y="7.5"
       x="2"
       height="1"
       width="1" />
    <rect
       style="fill:#ffffff"
       id="rect38"
       y="7.5"
       x="3"
       height="1"
       width="1" />
    <rect
       style="fill:#ffffff"
       id="rect40"
       y="7.5"
       x="4"
       height="1"
       width="1" />
    <rect
       style="fill:#ffffff"
       id="rect42"
       y="7.5"
       x="5"
       height="1"
       width="1" />
    <rect
       style="fill:#ffffff"
       id="rect44"
       y="8.5"
       x="1"
       height="1"
       width="1" />
    <rect
       style="fill:#000000"
       id="rect46"
       y="8.5"
       x="2"
       height="1"
       width="1" />
    <rect
       style="fill:#000000"
       id="rect48"
       y="8.5"
       x="3"
       height="1"
       width="1" />
    <rect
       style="fill:#000000"
       id="rect50"
       y="8.5"
       x="4"
       height="1"
       width="1" />
    <rect
       style="fill:#000000"
       id="rect52"
       y="8.5"
       x="5"
       height="1"
       width="1" />
  </g>
</svg>
