<?xml version="1.0" encoding="UTF-8" standalone="no"?>
<svg
   xmlns:dc="http://purl.org/dc/elements/1.1/"
   xmlns:cc="http://creativecommons.org/ns#"
   xmlns:rdf="http://www.w3.org/1999/02/22-rdf-syntax-ns#"
   xmlns:svg="http://www.w3.org/2000/svg"
   xmlns="http://www.w3.org/2000/svg"
   xmlns:sodipodi="http://sodipodi.sourceforge.net/DTD/sodipodi-0.dtd"
   xmlns:inkscape="http://www.inkscape.org/namespaces/inkscape"
   enable-background="new 0 0 512 512"
   height="512px"
   id="Layer_1"
   version="1.1"
   viewBox="0 0 512 512"
   width="512px"
   xml:space="preserve"
   inkscape:version="0.48.4 r9939"
   sodipodi:docname="image_monitor.svg"><metadata
     id="metadata9"><rdf:RDF><cc:Work
         rdf:about=""><dc:format>image/svg+xml</dc:format><dc:type
           rdf:resource="http://purl.org/dc/dcmitype/StillImage" /><dc:title></dc:title></cc:Work></rdf:RDF></metadata><defs
     id="defs7" /><sodipodi:namedview
     pagecolor="#ffffff"
     bordercolor="#666666"
     borderopacity="1"
     objecttolerance="10"
     gridtolerance="10"
     guidetolerance="10"
     inkscape:pageopacity="0"
     inkscape:pageshadow="2"
     inkscape:window-width="1920"
     inkscape:window-height="1028"
     id="namedview5"
     showgrid="false"
     inkscape:zoom="1.3037281"
     inkscape:cx="129.89487"
     inkscape:cy="205.14162"
     inkscape:window-x="1280"
     inkscape:window-y="24"
     inkscape:window-maximized="1"
     inkscape:current-layer="Layer_1" /><path
     d="M480,0H32C14.328,0,0,14.312,0,32v352c0,17.688,14.328,32,32,32h192v32h-96c-17.672,0-32,14.312-32,32v32h320v-32  c0-17.688-14.328-32-32-32h-96v-32h192c17.672,0,32-14.312,32-32V32C512,14.312,497.672,0,480,0z M448,352H64V64h384V352z"
     id="path3" /><g
     id="g3933"
     transform="translate(-1.5123537,0)"><g
       transform="translate(-6.4998982,14)"
       id="g3904"><rect
         style="fill:#ff0000;stroke-width:11;stroke-miterlimit:4;stroke-dasharray:none"
         id="rect3898"
         width="100"
         height="100"
         x="64.012253"
         y="44.018414" /><rect
         style="fill:#00ff00;stroke-width:11;stroke-miterlimit:4;stroke-dasharray:none"
         id="rect3900"
         width="100"
         height="100"
         x="64.012253"
         y="144.01851" /><rect
         style="fill:#0000ff;stroke-width:11;stroke-miterlimit:4;stroke-dasharray:none"
         id="rect3902"
         width="100"
         height="100"
         x="64.012253"
         y="244.01862" /></g><g
       id="g3909"
       transform="translate(93.500102,14)"><rect
         y="44.018414"
         x="64.012253"
         height="100"
         width="100"
         id="rect3911"
         style="fill:#0000ff;stroke-width:11;stroke-miterlimit:4;stroke-dasharray:none" /><rect
         y="144.01851"
         x="64.012253"
         height="100"
         width="100"
         id="rect3913"
         style="fill:#ff0000;stroke-width:11;stroke-miterlimit:4;stroke-dasharray:none" /><rect
         y="244.01862"
         x="64.012253"
         height="100"
         width="100"
         id="rect3915"
         style="fill:#00ff00;stroke-width:11;stroke-miterlimit:4;stroke-dasharray:none" /></g><g
       transform="translate(193.5001,14)"
       id="g3917"><rect
         style="fill:#00ff00;stroke-width:11;stroke-miterlimit:4;stroke-dasharray:none"
         id="rect3919"
         width="100"
         height="100"
         x="64.012253"
         y="44.018414" /><rect
         style="fill:#0000ff;stroke-width:11;stroke-miterlimit:4;stroke-dasharray:none"
         id="rect3921"
         width="100"
         height="100"
         x="64.012253"
         y="144.01851" /><rect
         style="fill:#ff0000;stroke-width:11;stroke-miterlimit:4;stroke-dasharray:none"
         id="rect3923"
         width="100"
         height="100"
         x="64.012253"
         y="244.01862" /></g><g
       id="g3925"
       transform="translate(293.5001,14)"><rect
         y="44.018414"
         x="64.012253"
         height="100"
         width="100"
         id="rect3927"
         style="fill:#ff0000;stroke-width:11;stroke-miterlimit:4;stroke-dasharray:none" /><rect
         y="144.01851"
         x="64.012253"
         height="100"
         width="100"
         id="rect3929"
         style="fill:#00ff00;stroke-width:11;stroke-miterlimit:4;stroke-dasharray:none" /><rect
         y="244.01862"
         x="64.012253"
         height="100"
         width="100"
         id="rect3931"
         style="fill:#0000ff;stroke-width:11;stroke-miterlimit:4;stroke-dasharray:none" /></g></g></svg>